…
```r
news_neighbourhood %>%
  activate(nodes) %>%
  as_tibble
```

```
## # A tibble: 22 x 5
##    name  module neighbours1 neighbours2 highlight
##    <chr> <fct>  <list>      <list>      <lgl>    
##  1 Q45   3      <int [8]>   <int [76]>  FALSE    
##  2 Q67   2      <int [22]>  <int [86]>  FALSE    
##  3 Q182  1      <int [41]>  <int [157]> FALSE    
##  4 Q193  1      <int [28]>  <int [98]>  FALSE    
##  5 Q201  4      <int [3]>   <int [21]>  TRUE     
##  6 Q202  4      <int [8]>   <int [90]>  TRUE     
##  7 Q204  4      <int [9]>   <int [46]>  TRUE     
##  8 Q205  4      <int [5]>   <int [11]>  TRUE     
##  9 Q206  4      <int [9]>   <int [46]>  TRUE     
## 10 Q207  4      <int [9]>   <int [39]>  TRUE     
## # ... with 12 more rows
```
…
